%YAML 1.1
%TAG !u! tag:unity3d.com,2011:
--- !u!114 &11400000
MonoBehaviour:
  m_ObjectHideFlags: 0
  m_PrefabParentObject: {fileID: 0}
  m_PrefabInternal: {fileID: 0}
  m_GameObject: {fileID: 0}
  m_Enabled: 1
  m_EditorHideFlags: 0
  m_Script: {fileID: 11500000, guid: 4aaaa4db21153df428fede59b33239f3, type: 3}
  m_Name: FartAudio
  m_EditorClassIdentifier: 
  clips:
  - {fileID: 8300000, guid: ddc8ab7c6bba78b4996c3bc5b67e2335, type: 3}
  - {fileID: 8300000, guid: d72a7d3a3559ab1419d2f0377d50f5ed, type: 3}
  - {fileID: 8300000, guid: c422c439a18c1824baa3114c121eaa87, type: 3}
  volume: 0.453
  pitch: 1
  hasRandomPitch: 1
