%YAML 1.1
%TAG !u! tag:unity3d.com,2011:
--- !u!114 &11400000
MonoBehaviour:
  m_ObjectHideFlags: 0
  m_PrefabParentObject: {fileID: 0}
  m_PrefabInternal: {fileID: 0}
  m_GameObject: {fileID: 0}
  m_Enabled: 1
  m_EditorHideFlags: 0
  m_Script: {fileID: 11500000, guid: 72df47fad8526e4439872cec79ef2da0, type: 3}
  m_Name: Game Over
  m_EditorClassIdentifier: 
  nextState: {fileID: 11400000, guid: 78b23537c4776274bb7c40998799674e, type: 2}
